somador1/simulation/qsim/somador1.msim.vcd
$comment
	File created using the following command:
		vcd file somador1.msim.vcd -direction
$end
$date
	Wed Jun 14 15:02:12 2023
$end
$version
	ModelSim Version 10.1d
$end
$timescale
	1ps
$end
$scope module somador1_vlg_vec_tst $end
$var reg 3 ! A [2:0] $end
$var reg 3 " B [2:0] $end
$var reg 1 # Te $end
$var wire 1 $ S [2] $end
$var wire 1 % S [1] $end
$var wire 1 & S [0] $end
$var wire 1 ' TsFim $end
$var wire 1 ( sampler $end
$scope module i1 $end
$var wire 1 ) gnd $end
$var wire 1 * vcc $end
$var wire 1 + unknown $end
$var tri1 1 , devclrn $end
$var tri1 1 - devpor $end
$var tri1 1 . devoe $end
$var wire 1 / Te~combout $end
$var wire 1 0 S~0_combout $end
$var wire 1 1 S~1_combout $end
$var wire 1 2 S~2_combout $end
$var wire 1 3 Ts[2]~0_combout $end
$var wire 1 4 Ts[2]~1_combout $end
$var wire 1 5 Ts~2_combout $end
$var wire 1 6 A~combout [2] $end
$var wire 1 7 A~combout [1] $end
$var wire 1 8 A~combout [0] $end
$var wire 1 9 B~combout [2] $end
$var wire 1 : B~combout [1] $end
$var wire 1 ; B~combout [0] $end
$upscope $end
$upscope $end
$enddefinitions $end
#0
$dumpvars
b100 !
b10 "
0#
0&
1%
1$
0'
x(
0)
1*
x+
1,
1-
1.
0/
00
11
12
03
04
05
08
07
16
0;
1:
09
$end
#10000
b0 !
b0 "
b1 "
1;
0:
06
0(
10
01
02
1&
0%
0$
#20000
b10 !
b11 !
b111 !
b11 "
b10 "
0;
1:
18
17
16
1(
14
12
15
1$
1'
#30000
b101 !
b0 "
b1 "
1;
0:
07
0(
13
00
04
05
0&
0'
#40000
b0 "
0;
1(
03
10
1&
#50000
b1 !
06
0(
02
0$
#60000
b0 !
b10 !
b10 "
1:
08
17
1(
14
00
0&
#70000
b110 "
b110 !
b100 "
16
0:
19
0(
15
04
11
1'
1%
#80000
b101 "
1;
1(
10
1&
#90000
b111 !
b1 "
b11 !
b11 "
b10 "
0;
1:
09
18
06
0(
14
01
05
0%
0'
